x,ci95,trend,raw
1.7766,795.337,719.636,697.206
2.55319,796.468,719.646,728.057
2.94149,797.034,719.651,723.016
4.49468,799.297,719.671,702.848
5.65957,800.994,719.686,707.069
6.04787,799.597,719.691,708.476
6.43617,798.2,719.696,739.322
6.82447,796.804,719.701,746.336
7.98936,792.613,715.043,767.379
8.76596,789.819,711.937,777.483
9.93085,781.423,707.279,792.638
10.3191,778.624,705.727,771.615
10.7074,775.825,703.629,750.592
11.0957,773.026,701.531,716.952
11.484,770.228,699.433,694.527
11.8723,767.429,697.335,697.335
13.0372,759.033,687.537,705.762
13.4255,756.234,684.271,712.075
14.2021,748.767,677.739,724.702
14.5904,745.034,674.473,731.015
15.367,737.567,667.941,672.147
15.7553,733.834,664.675,701.123
16.5319,726.367,658.143,703.003
17.3085,718.9,651.744,652.545
18.0851,711.434,645.346,671.247
18.4734,708.635,642.146,680.598
19.25,703.037,635.748,658.178
19.6383,700.239,632.949,646.968
20.8032,691.842,624.553,602.123
21.9681,683.446,616.156,615.596
22.7447,677.848,612.241,624.577
23.5213,672.251,608.326,641.41
23.9096,670.013,606.368,649.826
24.6862,665.537,602.453,624.602
25.4628,661.061,598.537,571.341
25.8511,659.197,596.58,599.384
26.2394,657.332,596.585,627.426
26.6277,655.468,596.59,647.057
27.016,654.772,595.66,666.688
28.1809,652.684,592.871,697.544
29.734,649.901,589.153,621.863
30.1223,650.529,588.223,640.56
30.8989,651.785,588.233,588.233
31.2872,652.413,588.238,604.126
32.0638,653.669,589.85,635.912
33.2287,655.553,592.268,703.216
33.617,656.96,593.074,672.38
34.0053,658.366,593.88,641.544
34.3936,659.773,595.988,619.119
35.5585,663.994,602.312,610.723
36.3351,666.808,606.527,612.602
36.7234,669.216,608.635,613.541
37.1117,671.624,610.743,605.135
37.5,674.032,613.151,596.729
38.2766,678.848,617.967,635.991
39.0532,683.665,622.784,604.225
39.4415,686.473,625.192,588.343
39.8298,689.282,627.6,591.151
40.2181,692.091,630.409,593.96
41.383,700.517,638.835,630.424
41.7713,703.326,641.643,650.055
42.1596,706.535,644.452,669.686
43.7128,719.372,655.687,655.687
44.1011,722.581,658.496,652.888
44.4894,725.79,661.304,627.66
45.266,733.277,666.922,644.492
46.0426,740.764,672.539,638.894
46.8191,748.25,678.958,645.914
47.5957,755.737,685.376,652.933
47.984,759.48,688.585,638.919
48.7606,766.967,695.004,633.322
49.1489,770.71,697.412,630.523
50.3138,779.136,704.637,594.089
51.0904,784.753,709.453,627.744
51.4787,787.562,711.861,672.609
51.867,790.371,713.735,684.763
52.6436,793.745,717.484,709.072
53.4202,797.12,721.232,647.4
53.8085,798.807,723.106,657.685
54.5851,801.621,723.817,678.256
55.3617,804.434,724.528,700.696
56.5266,804.449,725.594,725.945
56.9149,804.454,725.949,724.548
57.3032,804.459,725.487,723.151
57.6915,804.464,725.025,727.642
59.2447,797.475,723.176,745.605
60.0213,793.98,719.447,675.522
60.4096,792.233,717.583,691.228
60.7979,790.485,715.986,706.934
61.9628,784.192,711.194,754.052
63.1277,777.898,706.403,703.599
63.516,775.8,704.405,686.782
63.9043,773.703,702.407,716.226
64.2926,769.969,700.41,745.67
65.0691,762.502,696.414,695.213
65.8457,755.036,692.419,689.615
66.234,751.302,687.938,686.816
67.7872,736.369,670.014,675.621
68.5638,728.902,663.295,670.024
69.3404,723.305,656.576,613.959
69.7287,720.506,653.216,613.964
70.117,717.707,650.418,613.969
71.2819,709.311,642.021,628.704
71.6702,705.578,639.223,633.615
73.2234,690.644,626.158,614.009
73.6117,686.911,622.892,591.584
74,684.813,619.626,566.355
74.7766,680.617,615.898,602.814
76.3298,672.226,608.441,560.777
76.7181,670.128,606.577,575.502
77.883,666.405,600.984,619.676
78.6596,663.923,597.256,605.667
80.2128,658.958,595.033,577.65
82.1543,656.179,592.254,599.704
82.5426,656.651,591.698,604.115
82.9309,657.124,592.504,608.526
84.484,659.013,595.728,583.873
84.8723,660.264,596.534,577.709
85.2606,661.515,597.34,597.34
86.0372,664.017,600.154,636.603
87.9787,670.272,607.188,615.6
89.1436,676.596,611.409,602.998
91.0851,687.135,623.116,574.985
91.4734,689.943,625.457,599.289
92.25,695.561,632.196,647.897
93.4149,703.987,642.305,643.707
93.8032,706.796,645.814,642.31
94.9681,718.025,656.343,689.988
96.133,729.255,666.872,659.162
96.5213,732.999,670.382,688.606
96.9096,736.742,673.19,718.05
98.0745,747.972,681.617,611.523
98.4628,751.715,684.425,629.752
98.8511,754.924,687.234,647.982
99.2394,758.134,690.043,653.594
99.6277,761.343,692.851,659.207
101.181,774.18,704.086,737.731
101.957,780.732,709.704,670.451
103.122,790.56,718.13,662.055
103.511,793.836,720.939,676.079
103.899,795.523,722.065,690.102
104.676,798.897,724.318,709.739
105.452,802.272,726.571,764.889
105.84,803.078,727.137,771.436
107.005,805.496,728.834,782.666
107.394,806.302,729.399,805.1
107.782,807.108,729.965,821.928
108.17,807.914,730.531,841.559
109.335,805.826,732.228,853.35
110.112,804.434,729.746,861.21
110.888,803.042,727.264,847.201
111.277,802.346,726.022,854.683
112.053,799.553,723.54,869.646
112.83,796.759,721.058,884.609
113.218,795.362,719.194,892.091
113.606,793.965,717.329,813.591
114.383,791.171,713.601,723.881
114.771,787.438,711.737,676.223
115.16,783.705,709.873,683.705
115.936,776.238,704.275,698.668
116.713,768.771,698.678,676.248
117.101,765.505,695.879,686.533
117.878,758.973,688.038,707.104
119.043,749.175,676.278,634.222
119.819,741.708,671.615,653.858
121.372,726.775,662.289,656.121
121.761,723.575,658.555,656.686
122.149,720.376,654.822,625.85
122.926,713.978,647.355,600.626
123.702,707.579,639.889,637.646
124.09,704.38,636.529,656.155
124.867,696.913,629.81,693.175
125.255,693.18,626.451,664.208
125.644,690.781,623.091,635.241
126.032,688.383,621.093,606.274
127.585,678.79,613.103,617.508
127.973,676.392,611.105,617.513
128.362,674.528,609.107,617.518
128.75,672.664,607.911,617.523
129.527,668.935,605.517,592.3
129.915,667.071,604.321,575.482
130.303,665.207,603.124,582.497
130.691,664.511,601.927,589.511
131.08,663.815,600.731,581.105
131.468,663.119,600.335,572.698
132.633,661.031,599.149,592.339
133.41,659.639,598.357,583.004
133.798,660.205,597.962,578.336
135.739,663.033,599.544,645.65
136.904,664.731,600.494,600.805
137.293,665.296,600.81,609.222
137.681,666.859,602.498,617.638
138.846,671.547,607.559,564.382
139.234,673.109,609.246,574.667
140.011,676.235,612.06,595.238
140.787,679.36,614.874,598.051
142.729,691.401,626.114,659.758
143.505,696.217,630.329,631.731
144.282,702.635,634.545,662.021
145.447,712.263,648.578,707.457
146.223,718.682,655.317,699.055
147,726.168,662.056,690.654
147.388,729.912,665.426,645.799
147.777,733.655,668.234,612.159
148.553,741.141,673.852,676.655
148.941,744.885,676.66,671.614
150.495,759.858,689.764,651.447
150.883,763.601,693.04,641.638
151.271,766.41,696.316,631.83
152.436,774.836,704.742,620.63
153.601,783.262,713.169,651.486
153.989,786.772,715.977,679.529
154.766,793.791,719.352,749.632
155.154,797.301,721.039,721.6
155.543,800.109,722.726,693.567
155.931,802.918,724.413,694.133
156.707,808.535,727.788,695.264
157.484,809.947,731.162,696.396
157.872,810.653,732.849,709.485
158.649,812.065,733.981,735.663
159.426,813.477,735.112,769.318
159.814,814.183,735.678,753.902
160.979,814.198,735.693,707.656
161.367,814.203,735.698,752.52
161.755,814.208,735.703,772.152
162.92,814.223,731.98,769.363
164.085,814.237,728.256,817.041
164.473,810.037,727.015,889.943
165.25,801.636,724.533,876.869
165.638,797.435,722.134,870.332
166.027,794.636,719.736,915.197
166.415,791.837,717.338,951.65
167.191,786.24,712.542,929.23
167.968,780.642,707.745,904.007
168.356,777.844,704.546,877.376
168.745,774.644,701.346,850.746
169.133,771.445,698.147,831.124
169.521,768.246,694.948,797.485
170.686,758.648,685.35,783.481
171.074,755.448,682.551,766.663
172.239,741.445,674.155,702.192
172.628,737.711,671.356,671.356
173.793,726.511,662.96,660.156
174.181,722.778,660.161,648.946
174.569,719.045,656.802,637.736
175.734,710.648,646.723,668.592
176.511,705.051,640.004,643.368
177.287,699.453,633.285,634.967
178.064,693.856,626.566,649.93
178.452,691.057,624.889,657.412
180.005,679.862,618.18,623.787
180.394,677.998,616.315,615.381
181.947,670.541,608.859,623.812
182.335,668.677,606.994,594.378
182.723,668.331,605.878,564.943
183.888,667.295,602.528,604.211
184.277,666.949,601.412,591.599
184.665,666.604,601.417,578.987
185.441,665.913,601.427,597.688
185.83,666.229,601.432,607.039
186.218,666.546,601.837,649.1
186.606,666.862,602.243,747.236
187.383,667.495,603.054,817.339
187.771,667.812,603.459,780.896
188.16,668.128,603.865,766.882
188.548,668.445,604.27,748.663
188.936,668.761,605.521,730.443
189.713,671.975,608.023,713.631
190.101,673.583,609.275,654.757
190.489,675.19,610.526,632.332
191.654,680.011,614.279,668.796
192.043,682.019,615.53,663.894
193.207,688.042,623.956,649.19
193.596,690.049,626.765,649.195
194.372,694.064,632.382,649.205
195.149,700.483,638,624.915
195.537,703.692,640.248,612.771
196.702,713.32,646.991,646.431
197.09,716.529,649.239,640.127
198.255,726.157,657.666,621.217
199.032,732.575,663.283,666.087
199.42,735.785,666.092,668.895
199.809,738.994,670.022,671.704
200.585,745.546,677.882,677.322
201.362,752.098,685.743,666.117
202.138,758.65,693.229,654.912
202.527,762.393,696.973,649.309
202.915,766.136,700.716,680.155
203.303,769.88,704.459,705.394
203.691,773.623,708.202,703.997
204.468,781.11,712.698,701.203
204.856,784.319,714.946,699.806
205.633,790.737,719.442,680.19
206.41,797.156,723.19,649.359
207.186,803.574,726.939,684.883
207.574,805.448,728.813,702.645
207.963,807.323,730.687,697.977
208.739,811.071,734.435,688.641
209.128,812.945,736.309,696.356
209.516,814.819,737.436,704.071
210.293,816.231,739.689,719.502
211.069,817.643,741.942,710.166
211.457,818.349,741.947,705.498
212.622,820.466,741.962,722.335
213.011,819.67,741.967,727.948
213.399,818.874,740.85,733.56
213.787,818.078,739.734,755.995
214.564,816.486,737.5,784.043
214.952,815.69,736.384,809.281
215.34,814.894,734.637,801.576
216.505,806.497,729.395,778.46
217.282,800.9,725.9,803.704
217.67,798.101,724.152,782.68
218.059,795.703,722.405,761.657
218.447,793.305,720.074,739.232
219.612,786.11,713.079,711.21
220.388,781.313,708.416,683.183
221.553,770.113,700.02,657.964
222.718,758.913,691.624,674.801
223.495,752.515,686.026,686.026
223.883,749.315,682.76,663.601
224.271,746.116,679.494,643.98
224.66,742.917,676.228,624.359
225.436,736.518,669.696,607.546
225.824,732.785,666.43,611.476
227.378,717.851,653.633,627.197
227.766,714.118,650.433,582.342
228.154,710.385,647.234,565.525
228.543,706.651,644.035,517.866
